AFPProtonContainer
AFPProtonContainerAux.
AFPSiHitContainer
AFPSiHitContainerAux.
AFPSiHitsClusterContainer
AFPSiHitsClusterContainerAux.
AFPToFHitContainer
AFPToFHitContainerAux.
AFPToFTrackContainer
AFPToFTrackContainerAux.
AFPTrackContainer
AFPTrackContainerAux.
AFPVertexContainer
AFPVertexContainerAux.
AllCalo
BunchConfKey
BunchId
ByteStreamMetadata
CaloCalFwdTopoTowers
CaloCalFwdTopoTowersAux.
CaloCalFwdTopoTowersAuxDyn.ENG_FRAC_EM
CaloCalFwdTopoTowersAuxDyn.LONGITUDINAL
CaloCalFwdTopoTowersAuxDyn.SIGNIFICANCE
CaloCalTopoClusters
CaloCalTopoClustersAux.
CaloCalTopoClustersAuxDyn.AVG_LAR_Q
CaloCalTopoClustersAuxDyn.AVG_TILE_Q
CaloCalTopoClustersAuxDyn.BADLARQ_FRAC
CaloCalTopoClustersAuxDyn.BadChannelList
CaloCalTopoClustersAuxDyn.CELL_SIGNIFICANCE
CaloCalTopoClustersAuxDyn.CENTER_LAMBDA
CaloCalTopoClustersAuxDyn.CENTER_MAG
CaloCalTopoClustersAuxDyn.CellLink
CaloCalTopoClustersAuxDyn.EM_PROBABILITY
CaloCalTopoClustersAuxDyn.ENG_BAD_CELLS
CaloCalTopoClustersAuxDyn.ENG_FRAC_MAX
CaloCalTopoClustersAuxDyn.ENG_POS
CaloCalTopoClustersAuxDyn.FIRST_ENG_DENS
CaloCalTopoClustersAuxDyn.ISOLATION
CaloCalTopoClustersAuxDyn.LATERAL
CaloCalTopoClustersAuxDyn.LONGITUDINAL
CaloCalTopoClustersAuxDyn.MASS
CaloCalTopoClustersAuxDyn.NCELL_SAMPLING
CaloCalTopoClustersAuxDyn.N_BAD_CELLS
CaloCalTopoClustersAuxDyn.PTD
CaloCalTopoClustersAuxDyn.SECOND_LAMBDA
CaloCalTopoClustersAuxDyn.SECOND_R
CaloCalTopoClustersAuxDyn.SECOND_TIME
CaloCalTopoClustersAuxDyn.SIGNIFICANCE
CaloCalTopoClusters_links
CombinedMuonTrackParticles
CombinedMuonTrackParticlesAux.
ConditionsRun
DataHeader
DataHeaderForm
DiTauJets
DiTauJetsAux.
ElectronCaloRings
ElectronCaloRingsAux.
ElectronRingSets
ElectronRingSetsAux.
Electrons
ElectronsAux.
EventFormatStreamAOD
EventInfo
EventInfoAux.
EventInfoAuxDyn.actualInteractionsPerCrossing
EventInfoAuxDyn.averageInteractionsPerCrossing
EventInfoAuxDyn.beamPosSigmaX
EventInfoAuxDyn.beamPosSigmaXY
EventInfoAuxDyn.beamPosSigmaY
EventInfoAuxDyn.beamPosSigmaZ
EventInfoAuxDyn.beamPosX
EventInfoAuxDyn.beamPosY
EventInfoAuxDyn.beamPosZ
EventInfoAuxDyn.beamStatus
EventInfoAuxDyn.beamTiltXZ
EventInfoAuxDyn.beamTiltYZ
EventInfoAuxDyn.mcChannelNumber
EventInfoAuxDyn.mcEventNumber
EventInfoAuxDyn.mcEventWeights
EventInfoAuxDyn.streamTagDets
EventInfoAuxDyn.streamTagRobs
EventInfo_p4
EventNumber
EventTime
EventTimeNanoSec
EventWeight
ExtrapolatedMuonTrackParticles
ExtrapolatedMuonTrackParticlesAux.
ExtrapolatedMuonTrackParticlesAuxDyn.TRTdEdx
ExtrapolatedMuonTrackParticlesAuxDyn.TRTdEdxUsedHits
ExtrapolatedMuonTrackParticlesAuxDyn.alignEffectChId
ExtrapolatedMuonTrackParticlesAuxDyn.alignEffectDeltaAngle
ExtrapolatedMuonTrackParticlesAuxDyn.alignEffectDeltaTrans
ExtrapolatedMuonTrackParticlesAuxDyn.alignEffectSigmaDeltaAngle
ExtrapolatedMuonTrackParticlesAuxDyn.alignEffectSigmaDeltaTrans
ExtrapolatedMuonTrackParticlesAuxDyn.deltaphi_0
ExtrapolatedMuonTrackParticlesAuxDyn.deltaphi_1
ExtrapolatedMuonTrackParticlesAuxDyn.deltatheta_0
ExtrapolatedMuonTrackParticlesAuxDyn.deltatheta_1
ExtrapolatedMuonTrackParticlesAuxDyn.eProbabilityNN
ExtrapolatedMuonTrackParticlesAuxDyn.parameterPX
ExtrapolatedMuonTrackParticlesAuxDyn.parameterPY
ExtrapolatedMuonTrackParticlesAuxDyn.parameterPZ
ExtrapolatedMuonTrackParticlesAuxDyn.parameterPosition
ExtrapolatedMuonTrackParticlesAuxDyn.parameterX
ExtrapolatedMuonTrackParticlesAuxDyn.parameterY
ExtrapolatedMuonTrackParticlesAuxDyn.parameterZ
ExtrapolatedMuonTrackParticlesAuxDyn.sigmadeltaphi_0
ExtrapolatedMuonTrackParticlesAuxDyn.sigmadeltaphi_1
ExtrapolatedMuonTrackParticlesAuxDyn.sigmadeltatheta_0
ExtrapolatedMuonTrackParticlesAuxDyn.sigmadeltatheta_1
ExtrapolatedMuonTrackParticlesAuxDyn.trackLink
ExtrapolatedMuonTrackParticlesAuxDyn.trackParameterCovarianceMatrices
FileMetaData
FileMetaDataAux.
FileMetaDataAuxDyn.beamEnergy
FileMetaDataAuxDyn.beamType
FileMetaDataAuxDyn.conditionsTag
FileMetaDataAuxDyn.geometryVersion
FileMetaDataAuxDyn.mcProcID
ForwardElectronClusters
ForwardElectronClustersAux.
ForwardElectronClusters_links
ForwardElectrons
ForwardElectronsAux.
GSFConversionVertices
GSFConversionVerticesAux.
GSFTrackParticles
GSFTrackParticlesAux.
HLTHIEventShape
HLTHIEventShapeAux.
HLTHIEventShapeWeighted
HLTHIEventShapeWeightedAux.
HLTHIEventShapeWeighted_iter0
HLTHIEventShapeWeighted_iter0Aux.
HLTHIEventShape_iter1
HLTHIEventShape_iter1Aux.
HLTHIEventShape_iter_egamma
HLTHIEventShape_iter_egammaAux.
HLTNav_Summary_AODSlimmed
HLTNav_Summary_AODSlimmedAux.
HLT_AFPProtonContainer
HLT_AFPProtonContainerAux.
HLT_AFPSiHitsClusterContainer
HLT_AFPSiHitsClusterContainerAux.
HLT_AFPToFTrackContainer
HLT_AFPToFTrackContainerAux.
HLT_AFPTrackContainer
HLT_AFPTrackContainerAux.
HLT_AFPVertexContainer
HLT_AFPVertexContainerAux.
HLT_AntiKt10EMPFlowCSSKJets_nojcalib_ftf
HLT_AntiKt10EMPFlowCSSKJets_nojcalib_ftfAux.
HLT_AntiKt10EMPFlowCSSKSoftDropBeta100Zcut10Jets_jes_ftf
HLT_AntiKt10EMPFlowCSSKSoftDropBeta100Zcut10Jets_jes_ftfAux.
HLT_AntiKt10EMPFlowCSSKSoftDropBeta100Zcut10Jets_nojcalib_ftf
HLT_AntiKt10EMPFlowCSSKSoftDropBeta100Zcut10Jets_nojcalib_ftfAux.
HLT_AntiKt10EMPFlowJets_nojcalib_ftf
HLT_AntiKt10EMPFlowJets_nojcalib_ftfAux.
HLT_AntiKt10EMPFlowSoftDropBeta100Zcut10Jets_nojcalib_ftf
HLT_AntiKt10EMPFlowSoftDropBeta100Zcut10Jets_nojcalib_ftfAux.
HLT_AntiKt10EMTopoJets_nojcalib
HLT_AntiKt10EMTopoJets_nojcalibAux.
HLT_AntiKt10EMTopoRCJets_subjesIS
HLT_AntiKt10EMTopoRCJets_subjesISAux.
HLT_AntiKt10LCTopoJets_nojcalib
HLT_AntiKt10LCTopoJets_nojcalibAux.
HLT_AntiKt10LCTopoJets_subjes
HLT_AntiKt10LCTopoJets_subjesAux.
HLT_AntiKt10LCTopoSoftDropBeta100Zcut10Jets_nojcalib
HLT_AntiKt10LCTopoSoftDropBeta100Zcut10Jets_nojcalibAux.
HLT_AntiKt10LCTopoTrimmedPtFrac4SmallR20Jets_jes
HLT_AntiKt10LCTopoTrimmedPtFrac4SmallR20Jets_jesAux.
HLT_AntiKt10LCTopoTrimmedPtFrac4SmallR20Jets_nojcalib
HLT_AntiKt10LCTopoTrimmedPtFrac4SmallR20Jets_nojcalibAux.
HLT_AntiKt4EMPFlowCSSKJets_nojcalib_ftf
HLT_AntiKt4EMPFlowCSSKJets_nojcalib_ftfAux.
HLT_AntiKt4EMPFlowJets_nojcalib_ftf
HLT_AntiKt4EMPFlowJets_nojcalib_ftfAux.
HLT_AntiKt4EMPFlowJets_subjesIS_ftf
HLT_AntiKt4EMPFlowJets_subjesIS_ftfAux.
HLT_AntiKt4EMPFlowJets_subjesgscIS_ftf
HLT_AntiKt4EMPFlowJets_subjesgscIS_ftfAux.
HLT_AntiKt4EMPFlowJets_subjesgsc_ftf
HLT_AntiKt4EMPFlowJets_subjesgsc_ftfAux.
HLT_AntiKt4EMPFlowJets_subresjesgscIS_ftf
HLT_AntiKt4EMPFlowJets_subresjesgscIS_ftfAux.
HLT_AntiKt4EMPFlowJets_subresjesgscIS_ftf_BTagging
HLT_AntiKt4EMPFlowJets_subresjesgscIS_ftf_BTaggingAux.
HLT_AntiKt4EMPFlowJets_subresjesgscIS_ftf_BTaggingJFVtx
HLT_AntiKt4EMPFlowJets_subresjesgscIS_ftf_BTaggingJFVtxAux.
HLT_AntiKt4EMPFlowJets_subresjesgscIS_ftf_BTaggingSecVtx
HLT_AntiKt4EMPFlowJets_subresjesgscIS_ftf_BTaggingSecVtxAux.
HLT_AntiKt4EMPFlowJets_subresjesgscIS_ftf_bJets
HLT_AntiKt4EMPFlowJets_subresjesgscIS_ftf_bJetsAux.
HLT_AntiKt4EMPFlowJets_subresjesgsc_ftf
HLT_AntiKt4EMPFlowJets_subresjesgsc_ftfAux.
HLT_AntiKt4EMTopoCSSKJets_nojcalib
HLT_AntiKt4EMTopoCSSKJets_nojcalibAux.
HLT_AntiKt4EMTopoJets_nojcalib
HLT_AntiKt4EMTopoJets_nojcalibAux.
HLT_AntiKt4EMTopoJets_nojcalib_ftf
HLT_AntiKt4EMTopoJets_nojcalib_ftfAux.
HLT_AntiKt4EMTopoJets_subjes
HLT_AntiKt4EMTopoJets_subjesAux.
HLT_AntiKt4EMTopoJets_subjesIS
HLT_AntiKt4EMTopoJets_subjesISAux.
HLT_AntiKt4EMTopoJets_subjesIS_ftf
HLT_AntiKt4EMTopoJets_subjesIS_ftfAux.
HLT_AntiKt4EMTopoJets_subjesgscIS_ftf
HLT_AntiKt4EMTopoJets_subjesgscIS_ftfAux.
HLT_AntiKt4EMTopoJets_subjesgsc_ftf
HLT_AntiKt4EMTopoJets_subjesgsc_ftfAux.
HLT_AntiKt4EMTopoJets_subresjesgscIS_ftf
HLT_AntiKt4EMTopoJets_subresjesgscIS_ftfAux.
HLT_AntiKt4EMTopoJets_subresjesgscIS_ftf_BTagging
HLT_AntiKt4EMTopoJets_subresjesgscIS_ftf_BTaggingAux.
HLT_AntiKt4EMTopoJets_subresjesgscIS_ftf_BTaggingJFVtx
HLT_AntiKt4EMTopoJets_subresjesgscIS_ftf_BTaggingJFVtxAux.
HLT_AntiKt4EMTopoJets_subresjesgscIS_ftf_BTaggingSecVtx
HLT_AntiKt4EMTopoJets_subresjesgscIS_ftf_BTaggingSecVtxAux.
HLT_AntiKt4EMTopoJets_subresjesgscIS_ftf_bJets
HLT_AntiKt4EMTopoJets_subresjesgscIS_ftf_bJetsAux.
HLT_AntiKt4EMTopoJets_subresjesgsc_ftf
HLT_AntiKt4EMTopoJets_subresjesgsc_ftfAux.
HLT_AntiKt4EMTopoSKJets_nojcalib
HLT_AntiKt4EMTopoSKJets_nojcalibAux.
HLT_AntiKt4HIJets
HLT_AntiKt4HIJetsAux.
HLT_AntiKt4HIJets_Unsubtracted
HLT_AntiKt4HIJets_UnsubtractedAux.
HLT_AntiKt4HIJets_sub_noCalib
HLT_AntiKt4HIJets_sub_noCalibAux.
HLT_AntiKtVR30Rmax4Rmin02PV0TrackJets
HLT_AntiKtVR30Rmax4Rmin02PV0TrackJetsAux.
HLT_Bmumux
HLT_BmumuxAux.
HLT_Bmutrk
HLT_BmutrkAux.
HLT_Bmux
HLT_BmuxAux.
HLT_CBCombinedMuon_FSTrackParticles
HLT_CBCombinedMuon_FSTrackParticlesAux.
HLT_CBCombinedMuon_RoITrackParticles
HLT_CBCombinedMuon_RoITrackParticlesAux.
HLT_CaloEMClusters_Electron
HLT_CaloEMClusters_ElectronAux.
HLT_CaloEMClusters_FWD
HLT_CaloEMClusters_FWDAux.
HLT_CaloEMClusters_LRT
HLT_CaloEMClusters_LRTAux.
HLT_CaloEMClusters_Photon
HLT_CaloEMClusters_PhotonAux.
HLT_DiElecPrecision
HLT_DiElecPrecisionAux.
HLT_DiElecPrecisionGSF
HLT_DiElecPrecisionGSFAux.
HLT_DimuEF
HLT_DimuEFAux.
HLT_DisTrkBDTSel
HLT_DisTrkBDTSelAux.
HLT_DisTrkCand
HLT_DisTrkCandAux.
HLT_DrellYan
HLT_DrellYanAux.
HLT_EMRoIs
HLT_FSLRT_TrackCount
HLT_FSLRT_TrackCountAux.
HLT_FSRoI
HLT_FastCaloEMClusters
HLT_FastCaloEMClustersAux.
HLT_FastCaloEMClusters_FWD
HLT_FastCaloEMClusters_FWDAux.
HLT_FastCaloRinger
HLT_FastCaloRingerAux.
HLT_FastElectrons
HLT_FastElectronsAux.
HLT_FastElectrons_LRT
HLT_FastElectrons_LRTAux.
HLT_FastPhotons
HLT_FastPhotonsAux.
HLT_HICaloEMClusters
HLT_HICaloEMClustersAux.
HLT_HIEventShapeEG
HLT_HIEventShapeEGAux.
HLT_HPtdEdxTrk
HLT_HPtdEdxTrkAux.
HLT_HitDV
HLT_HitDVAux.
HLT_IDTrack_Bjet_FTF
HLT_IDTrack_Bjet_FTFAux.
HLT_IDTrack_Bjet_IDTrig
HLT_IDTrack_Bjet_IDTrigAux.
HLT_IDTrack_Bmumux_FTF
HLT_IDTrack_Bmumux_FTFAux.
HLT_IDTrack_Bmumux_IDTrig
HLT_IDTrack_Bmumux_IDTrigAux.
HLT_IDTrack_Cosmic_EFID
HLT_IDTrack_Cosmic_EFIDAux.
HLT_IDTrack_Cosmic_FTF
HLT_IDTrack_Cosmic_FTFAux.
HLT_IDTrack_Cosmic_IDTrig
HLT_IDTrack_Cosmic_IDTrigAux.
HLT_IDTrack_DJLRT_FTF
HLT_IDTrack_DJLRT_FTFAux.
HLT_IDTrack_ElecLRT_FTF
HLT_IDTrack_ElecLRT_FTFAux.
HLT_IDTrack_ElecLRT_IDTrig
HLT_IDTrack_ElecLRT_IDTrigAux.
HLT_IDTrack_Electron_FTF
HLT_IDTrack_Electron_FTFAux.
HLT_IDTrack_Electron_GSF
HLT_IDTrack_Electron_GSFAux.
HLT_IDTrack_Electron_IDTrig
HLT_IDTrack_Electron_IDTrigAux.
HLT_IDTrack_Electron_LRTGSF
HLT_IDTrack_Electron_LRTGSFAux.
HLT_IDTrack_FSLRT_FTF
HLT_IDTrack_FSLRT_FTFAux.
HLT_IDTrack_FSLRT_IDTrig
HLT_IDTrack_FSLRT_IDTrigAux.
HLT_IDTrack_FS_FTF
HLT_IDTrack_FS_FTFAux.
HLT_IDTrack_JetSuper_FTF
HLT_IDTrack_JetSuper_FTFAux.
HLT_IDTrack_MinBias_IDTrig
HLT_IDTrack_MinBias_IDTrigAux.
HLT_IDTrack_MuonIso_FTF
HLT_IDTrack_MuonIso_FTFAux.
HLT_IDTrack_MuonIso_IDTrig
HLT_IDTrack_MuonIso_IDTrigAux.
HLT_IDTrack_MuonLRT_FTF
HLT_IDTrack_MuonLRT_FTFAux.
HLT_IDTrack_MuonLRT_IDTrig
HLT_IDTrack_MuonLRT_IDTrigAux.
HLT_IDTrack_Muon_FTF
HLT_IDTrack_Muon_FTFAux.
HLT_IDTrack_Muon_IDTrig
HLT_IDTrack_Muon_IDTrigAux.
HLT_IDTrack_TauCore_FTF
HLT_IDTrack_TauCore_FTFAux.
HLT_IDTrack_TauIso_FTF
HLT_IDTrack_TauIso_FTFAux.
HLT_IDTrack_Tau_IDTrig
HLT_IDTrack_Tau_IDTrigAux.
HLT_IDVertex_FS
HLT_IDVertex_FSAux.
HLT_IDVertex_FSJet
HLT_IDVertex_FSJetAux.
HLT_IDVertex_FSLRT
HLT_IDVertex_FSLRTAux.
HLT_IDVertex_Tau
HLT_IDVertex_TauAux.
HLT_JETRoI
HLT_LArPS_AllCaloClusters
HLT_LArPS_AllCaloClustersAux.
HLT_LArPS_AllCaloEMClusters
HLT_LArPS_AllCaloEMClustersAux.
HLT_METRoI
HLT_MET_cell
HLT_MET_cellAux.
HLT_MET_cvfpufit
HLT_MET_cvfpufitAux.
HLT_MET_mht
HLT_MET_mhtAux.
HLT_MET_mhtpufit_em
HLT_MET_mhtpufit_emAux.
HLT_MET_mhtpufit_em_subjesgscIS
HLT_MET_mhtpufit_em_subjesgscISAux.
HLT_MET_mhtpufit_pf
HLT_MET_mhtpufit_pfAux.
HLT_MET_mhtpufit_pf_subjesgscIS
HLT_MET_mhtpufit_pf_subjesgscISAux.
HLT_MET_nn
HLT_MET_nnAux.
HLT_MET_pfopufit
HLT_MET_pfopufitAux.
HLT_MET_pfsum
HLT_MET_pfsumAux.
HLT_MET_pfsum_cssk
HLT_MET_pfsum_csskAux.
HLT_MET_pfsum_vssk
HLT_MET_pfsum_vsskAux.
HLT_MET_tc
HLT_MET_tcAux.
HLT_MET_tc_em
HLT_MET_tc_emAux.
HLT_MET_tcpufit
HLT_MET_tcpufitAux.
HLT_MET_trkmht
HLT_MET_trkmhtAux.
HLT_MSExtrapolatedMuons_FSTrackParticles
HLT_MSExtrapolatedMuons_FSTrackParticlesAux.
HLT_MSExtrapolatedMuons_RoITrackParticles
HLT_MSExtrapolatedMuons_RoITrackParticlesAux.
HLT_MSOnlyExtrapolatedMuons_FSTrackParticles
HLT_MSOnlyExtrapolatedMuons_FSTrackParticlesAux.
HLT_MURoIs
HLT_MbtsBitsContainer
HLT_MbtsBitsContainerAux.
HLT_MuonL2CBInfo
HLT_MuonL2CBInfoAux.
HLT_MuonL2CBInfoIOmode
HLT_MuonL2CBInfoIOmodeAux.
HLT_MuonL2CBInfoLRT
HLT_MuonL2CBInfoLRTAux.
HLT_MuonL2CBInfoLRTAuxDyn.viewIndex
HLT_MuonL2CBInfol2mtmode
HLT_MuonL2CBInfol2mtmodeAux.
HLT_MuonL2SAInfo
HLT_MuonL2SAInfoAux.
HLT_MuonL2SAInfoAuxDyn.viewIndex
HLT_MuonL2SAInfoIOmode
HLT_MuonL2SAInfoIOmodeAux.
HLT_MuonL2SAInfol2mtmode
HLT_MuonL2SAInfol2mtmodeAux.
HLT_MuonsCB_FS
HLT_MuonsCB_FSAux.
HLT_MuonsCB_LRT
HLT_MuonsCB_LRTAux.
HLT_MuonsCB_RoI
HLT_MuonsCB_RoIAux.
HLT_MuonsIso
HLT_MuonsIsoAux.
HLT_Muons_FS
HLT_Muons_FSAux.
HLT_Muons_RoI
HLT_Muons_RoIAux.
HLT_NoMuonDiElecPrecision
HLT_NoMuonDiElecPrecisionAux.
HLT_NoMuonDiElecPrecisionGSF
HLT_NoMuonDiElecPrecisionGSFAux.
HLT_Roi_Bjet
HLT_Roi_Bmumux
HLT_Roi_DJ
HLT_Roi_FastElectron
HLT_Roi_FastElectron_LRT
HLT_Roi_FastPhoton
HLT_Roi_IDCalibPEB
HLT_Roi_JetSuper
HLT_Roi_L2SAMuon
HLT_Roi_L2SAMuonForEF
HLT_Roi_L2SAMuon_LRT
HLT_Roi_LArPEBHLT
HLT_Roi_MuonIso
HLT_Roi_Tau
HLT_Roi_TauCore
HLT_Roi_TauIso
HLT_Roi_TauIsoBDT
HLT_SpacePointCounts
HLT_SpacePointCountsAux.
HLT_TAURoI
HLT_TopoCaloClusters
HLT_TopoCaloClustersAux.
HLT_TopoCaloClustersFS
HLT_TopoCaloClustersFSAux.
HLT_TopoCaloClustersHIRoI
HLT_TopoCaloClustersHIRoIAux.
HLT_TopoCaloClustersLC
HLT_TopoCaloClustersLCAux.
HLT_TopoCaloClustersLCFS
HLT_TopoCaloClustersLCFSAux.
HLT_TopoCaloClustersRoI
HLT_TopoCaloClustersRoIAux.
HLT_TopoCaloClustersRoI_LRT
HLT_TopoCaloClustersRoI_LRTAux.
HLT_TrackCount
HLT_TrackCountAux.
HLT_TrigTRTHTCounts
HLT_TrigTRTHTCountsAux.
HLT_TrigTauRecMerged_CaloMVAOnly
HLT_TrigTauRecMerged_CaloMVAOnlyAux.
HLT_TrigTauRecMerged_LLP
HLT_TrigTauRecMerged_LLPAux.
HLT_TrigTauRecMerged_MVA
HLT_TrigTauRecMerged_MVAAux.
HLT_TrigVSITrkPair
HLT_TrigVSITrkPairAux.
HLT_TrigVSIVertex
HLT_TrigVSIVertexAux.
HLT_TrigVSI_VtxCount
HLT_TrigVSI_VtxCountAux.
HLT_cTAURoIs
HLT_dEdxTrk
HLT_dEdxTrkAux.
HLT_eEMRoIs
HLT_eTAURoIs
HLT_egamma_Electrons
HLT_egamma_ElectronsAux.
HLT_egamma_Electrons_GSF
HLT_egamma_Electrons_GSFAux.
HLT_egamma_Electrons_LRT
HLT_egamma_Electrons_LRTAux.
HLT_egamma_Electrons_LRTGSF
HLT_egamma_Electrons_LRTGSFAux.
HLT_egamma_Photons
HLT_egamma_PhotonsAux.
HLT_gJRoIs
HLT_gLJRoIs
HLT_jJRoIs
HLT_jLJRoIs
HLT_jTAURoIs
HLT_jet_seed
HLT_jet_seedAux.
HLT_tautrack_LLP
HLT_tautrack_LLPAux.
HLT_tautrack_MVA
HLT_tautrack_MVAAux.
HLT_vtx_z
HLT_vtx_zAux.
InDetPixelTrackParticles
InDetPixelTrackParticlesAux.
InDetSCTTrackParticles
InDetSCTTrackParticlesAux.
InDetTRTTrackParticles
InDetTRTTrackParticlesAux.
InDetTrackParticles
InDetTrackParticlesAssociatedClusters
InDetTrackParticlesAssociatedClustersAux.
InDetTrackParticlesAssociatedClusters_links
InDetTrackParticlesAux.
InDetTrackParticlesClusterAssociations
InDetTrackParticlesClusterAssociationsAux.
IsCalibration
IsSimulation
IsTestBeam
JetETMissChargedParticleFlowObjects
JetETMissChargedParticleFlowObjectsAux.
JetETMissLCNeutralParticleFlowObjects
JetETMissLCNeutralParticleFlowObjectsAux.
JetETMissLCNeutralParticleFlowObjectsAuxDyn.eta
JetETMissLCNeutralParticleFlowObjectsAuxDyn.m
JetETMissLCNeutralParticleFlowObjectsAuxDyn.phi
JetETMissLCNeutralParticleFlowObjectsAuxDyn.pt
JetETMissNeutralParticleFlowObjects
JetETMissNeutralParticleFlowObjectsAux.
JetETMissNeutralParticleFlowObjectsAuxDyn.AVG_LAR_Q
JetETMissNeutralParticleFlowObjectsAuxDyn.AVG_TILE_Q
JetETMissNeutralParticleFlowObjectsAuxDyn.BADLARQ_FRAC
JetETMissNeutralParticleFlowObjectsAuxDyn.CENTER_LAMBDA
JetETMissNeutralParticleFlowObjectsAuxDyn.CENTER_MAG
JetETMissNeutralParticleFlowObjectsAuxDyn.EM_PROBABILITY
JetETMissNeutralParticleFlowObjectsAuxDyn.ENG_BAD_CELLS
JetETMissNeutralParticleFlowObjectsAuxDyn.ENG_POS
JetETMissNeutralParticleFlowObjectsAuxDyn.FE_ElectronLinks
JetETMissNeutralParticleFlowObjectsAuxDyn.FE_MuonLinks
JetETMissNeutralParticleFlowObjectsAuxDyn.FE_PhotonLinks
JetETMissNeutralParticleFlowObjectsAuxDyn.FE_TauLinks
JetETMissNeutralParticleFlowObjectsAuxDyn.FE_efrac_matched_muon
JetETMissNeutralParticleFlowObjectsAuxDyn.FE_nMatchedMuons
JetETMissNeutralParticleFlowObjectsAuxDyn.ISOLATION
JetETMissNeutralParticleFlowObjectsAuxDyn.LAYERENERGY_EMB1
JetETMissNeutralParticleFlowObjectsAuxDyn.LAYERENERGY_EMB2
JetETMissNeutralParticleFlowObjectsAuxDyn.LAYERENERGY_EMB3
JetETMissNeutralParticleFlowObjectsAuxDyn.LAYERENERGY_EME1
JetETMissNeutralParticleFlowObjectsAuxDyn.LAYERENERGY_EME2
JetETMissNeutralParticleFlowObjectsAuxDyn.LAYERENERGY_EME3
JetETMissNeutralParticleFlowObjectsAuxDyn.LAYERENERGY_FCAL0
JetETMissNeutralParticleFlowObjectsAuxDyn.LAYERENERGY_FCAL1
JetETMissNeutralParticleFlowObjectsAuxDyn.LAYERENERGY_FCAL2
JetETMissNeutralParticleFlowObjectsAuxDyn.LAYERENERGY_HEC0
JetETMissNeutralParticleFlowObjectsAuxDyn.LAYERENERGY_HEC1
JetETMissNeutralParticleFlowObjectsAuxDyn.LAYERENERGY_HEC2
JetETMissNeutralParticleFlowObjectsAuxDyn.LAYERENERGY_HEC3
JetETMissNeutralParticleFlowObjectsAuxDyn.LAYERENERGY_MINIFCAL0
JetETMissNeutralParticleFlowObjectsAuxDyn.LAYERENERGY_MINIFCAL1
JetETMissNeutralParticleFlowObjectsAuxDyn.LAYERENERGY_MINIFCAL2
JetETMissNeutralParticleFlowObjectsAuxDyn.LAYERENERGY_MINIFCAL3
JetETMissNeutralParticleFlowObjectsAuxDyn.LAYERENERGY_PreSamplerB
JetETMissNeutralParticleFlowObjectsAuxDyn.LAYERENERGY_PreSamplerE
JetETMissNeutralParticleFlowObjectsAuxDyn.LAYERENERGY_TILE0
JetETMissNeutralParticleFlowObjectsAuxDyn.LAYERENERGY_TileBar0
JetETMissNeutralParticleFlowObjectsAuxDyn.LAYERENERGY_TileBar1
JetETMissNeutralParticleFlowObjectsAuxDyn.LAYERENERGY_TileBar2
JetETMissNeutralParticleFlowObjectsAuxDyn.LAYERENERGY_TileExt0
JetETMissNeutralParticleFlowObjectsAuxDyn.LAYERENERGY_TileExt1
JetETMissNeutralParticleFlowObjectsAuxDyn.LAYERENERGY_TileExt2
JetETMissNeutralParticleFlowObjectsAuxDyn.LAYERENERGY_TileGap1
JetETMissNeutralParticleFlowObjectsAuxDyn.LAYERENERGY_TileGap2
JetETMissNeutralParticleFlowObjectsAuxDyn.LAYERENERGY_TileGap3
JetETMissNeutralParticleFlowObjectsAuxDyn.N_BAD_CELLS
JetETMissNeutralParticleFlowObjectsAuxDyn.SECOND_LAMBDA
JetETMissNeutralParticleFlowObjectsAuxDyn.SECOND_R
JetETMissNeutralParticleFlowObjectsAuxDyn.TIMING
L1TopoErrorFlags_Legacy
L1TopoErrorFlags_LegacyAux.
L1TopoRawData
L1TopoRawDataAux.
L1_Phase1L1TopoRAWData
L1_Phase1L1TopoRAWDataAux.
L1_cTauRoI
L1_cTauRoIAux.
L1_eEMRoI
L1_eEMRoIAux.
L1_eEMxRoI
L1_eEMxRoIAux.
L1_eEMxRoIOutOfTime
L1_eEMxRoIOutOfTimeAux.
L1_eFexDataTowers
L1_eFexDataTowersAux.
L1_eTauRoI
L1_eTauRoIAux.
L1_eTauxRoI
L1_eTauxRoIAux.
L1_eTauxRoIOutOfTime
L1_eTauxRoIOutOfTimeAux.
L1_gFexDataTowers
L1_gFexDataTowersAux.
L1_gFexLRJetRoI
L1_gFexLRJetRoIAux.
L1_gFexRhoRoI
L1_gFexRhoRoIAux.
L1_gFexSRJetRoI
L1_gFexSRJetRoIAux.
L1_gMETComponentsJwoj
L1_gMETComponentsJwojAux.
L1_gMHTComponentsJwoj
L1_gMHTComponentsJwojAux.
L1_gMSTComponentsJwoj
L1_gMSTComponentsJwojAux.
L1_gScalarEJwoj
L1_gScalarEJwojAux.
L1_jFexDataTowers
L1_jFexDataTowersAux.
L1_jFexFwdElxRoI
L1_jFexFwdElxRoIAux.
L1_jFexLRJetRoI
L1_jFexLRJetRoIAux.
L1_jFexLRJetxRoI
L1_jFexLRJetxRoIAux.
L1_jFexMETRoI
L1_jFexMETRoIAux.
L1_jFexMETxRoI
L1_jFexMETxRoIAux.
L1_jFexSRJetRoI
L1_jFexSRJetRoIAux.
L1_jFexSRJetxRoI
L1_jFexSRJetxRoIAux.
L1_jFexSumETRoI
L1_jFexSumETRoIAux.
L1_jFexSumETxRoI
L1_jFexSumETxRoIAux.
L1_jFexTauRoI
L1_jFexTauRoIAux.
L1_jFexTauxRoI
L1_jFexTauxRoIAux.
LArNoisyROSummary
LVL1EmTauRoIs
LVL1EmTauRoIsAux.
LVL1EnergySumRoI
LVL1EnergySumRoIAux.
LVL1JetEtRoI
LVL1JetEtRoIAux.
LVL1JetRoIs
LVL1JetRoIsAux.
LVL1MuonRoIs
LVL1MuonRoIsAux.
LVL1MuonRoIsAuxDyn.thresholdPatterns
LVL1MuonRoIsBCm1
LVL1MuonRoIsBCm1Aux.
LVL1MuonRoIsBCm2
LVL1MuonRoIsBCm2Aux.
LVL1MuonRoIsBCp1
LVL1MuonRoIsBCp1Aux.
LVL1MuonRoIsBCp2
LVL1MuonRoIsBCp2Aux.
LumiBlockN
MBTSContainer
MSDisplacedVertex
MSDisplacedVertexAux.
MSOnlyExtrapolatedMuonTrackParticles
MSOnlyExtrapolatedMuonTrackParticlesAux.
MSonlyTracklets
MSonlyTrackletsAux.
McChannel
MuonCandidates_FS_ROIs
MuonClusterCollection
MuonClusterCollectionAux.
MuonClusterCollectionAuxDyn.CellLink
MuonClusterCollectionAuxDyn.constituentClusterLinks
MuonClusterCollectionAuxDyn.eta_sampl
MuonClusterCollectionAuxDyn.phi_sampl
MuonClusterCollection_links
MuonSegments
MuonSegmentsAux.
MuonSegmentsAuxDyn.N_MicromegaEtaHits
MuonSegmentsAuxDyn.N_MicromegaStereoHits
MuonSegmentsAuxDyn.N_StgcEtaHits
MuonSegmentsAuxDyn.N_StgcPhiHits
MuonSegmentsAuxDyn.clusterTime
MuonSegmentsAuxDyn.clusterTimeError
MuonSegmentsAuxDyn.clusterTimeValid
MuonSegmentsAuxDyn.muonSegment
MuonSpectrometerTrackParticles
MuonSpectrometerTrackParticlesAux.
MuonSpectrometerTrackParticlesAuxDyn.TRTdEdx
MuonSpectrometerTrackParticlesAuxDyn.TRTdEdxUsedHits
MuonSpectrometerTrackParticlesAuxDyn.eProbabilityNN
MuonSpectrometerTrackParticlesAuxDyn.parameterPX
MuonSpectrometerTrackParticlesAuxDyn.parameterPY
MuonSpectrometerTrackParticlesAuxDyn.parameterPZ
MuonSpectrometerTrackParticlesAuxDyn.parameterPosition
MuonSpectrometerTrackParticlesAuxDyn.parameterX
MuonSpectrometerTrackParticlesAuxDyn.parameterY
MuonSpectrometerTrackParticlesAuxDyn.parameterZ
MuonSpectrometerTrackParticlesAuxDyn.trackLink
MuonSpectrometerTrackParticlesAuxDyn.trackParameterCovarianceMatrices
Muons
MuonsAux.
MuonsAuxDyn.CT_EL_Type
MuonsAuxDyn.CT_ET_FSRCandidateEnergy
MuonsAuxDyn.ClusterInfo_deltaR
MuonsAuxDyn.ET_Core
MuonsAuxDyn.ET_EMCore
MuonsAuxDyn.ET_HECCore
MuonsAuxDyn.ET_TileCore
MuonsAuxDyn.FSR_CandidateEnergy
MuonsAuxDyn.chargedFELinks
MuonsAuxDyn.combinedTrackOutBoundsPrecisionHits
MuonsAuxDyn.d0_staco
MuonsAuxDyn.extendedClosePrecisionHits
MuonsAuxDyn.extendedOutBoundsPrecisionHits
MuonsAuxDyn.innerClosePrecisionHits
MuonsAuxDyn.innerOutBoundsPrecisionHits
MuonsAuxDyn.isEndcapGoodLayers
MuonsAuxDyn.isSmallGoodSectors
MuonsAuxDyn.middleClosePrecisionHits
MuonsAuxDyn.middleOutBoundsPrecisionHits
MuonsAuxDyn.muon_efrac_matched_FE
MuonsAuxDyn.nUnspoiledCscHits
MuonsAuxDyn.neutralFELinks
MuonsAuxDyn.numEnergyLossPerTrack
MuonsAuxDyn.numberOfGoodPrecisionLayers
MuonsAuxDyn.outerClosePrecisionHits
MuonsAuxDyn.outerOutBoundsPrecisionHits
MuonsAuxDyn.phi0_staco
MuonsAuxDyn.ptcone20
MuonsAuxDyn.ptcone30
MuonsAuxDyn.ptcone40
MuonsAuxDyn.ptconeCorrBitset
MuonsAuxDyn.ptconecoreTrackPtrCorrection
MuonsAuxDyn.ptvarcone20
MuonsAuxDyn.ptvarcone30
MuonsAuxDyn.ptvarcone40
MuonsAuxDyn.qOverPErr_staco
MuonsAuxDyn.qOverP_staco
MuonsAuxDyn.theta_staco
MuonsAuxDyn.topoetcone20
MuonsAuxDyn.topoetcone30
MuonsAuxDyn.topoetcone40
MuonsAuxDyn.topoetconeCorrBitset
MuonsAuxDyn.topoetconecoreConeEnergyCorrection
MuonsAuxDyn.z0_staco
NCB_MuonSegments
NCB_MuonSegmentsAux.
Photons
PhotonsAux.
RunNumber
StreamAOD
SuspectLumiBlocks
SuspectLumiBlocksAux.
TauFinalPi0s
TauFinalPi0sAux.
TauHadronicParticleFlowObjects
TauHadronicParticleFlowObjectsAux.
TauJets
TauJetsAux.
TauJetsAuxDyn.PanTau_DecayModeExtended
TauJetsAuxDyn.chargedFELinks
TauJetsAuxDyn.etaCombined
TauJetsAuxDyn.mCombined
TauJetsAuxDyn.neutralFELinks
TauJetsAuxDyn.phiCombined
TauJetsAuxDyn.ptCombined
TauNeutralParticleFlowObjects
TauNeutralParticleFlowObjectsAux.
TauPi0Clusters
TauPi0ClustersAux.
TauPi0Clusters_links
TauSecondaryVertices
TauSecondaryVerticesAux.
TauShotClusters
TauShotClustersAux.
TauShotClusters_links
TauShotParticleFlowObjects
TauShotParticleFlowObjectsAux.
TauTracks
TauTracksAux.
TileMuObj
Token
TopoClusterIsoCentralEventShape
TopoClusterIsoCentralEventShapeAux.
TopoClusterIsoCentralEventShapeAuxDyn.Density
TopoClusterIsoForwardEventShape
TopoClusterIsoForwardEventShapeAux.
TopoClusterIsoForwardEventShapeAuxDyn.Density
TrigConfKeys
TrigConfKeysOnline
TriggerMenuJson_BG
TriggerMenuJson_BGAux.
TriggerMenuJson_HLT
TriggerMenuJson_HLTAux.
TriggerMenuJson_HLTMonitoring
TriggerMenuJson_HLTMonitoringAux.
TriggerMenuJson_HLTPS
TriggerMenuJson_HLTPSAux.
TriggerMenuJson_L1
TriggerMenuJson_L1Aux.
TriggerMenuJson_L1PS
TriggerMenuJson_L1PSAux.
UnAssocMuonSegments
UnAssocMuonSegmentsAux.
UnAssocMuonSegmentsAuxDyn.N_MicromegaEtaHits
UnAssocMuonSegmentsAuxDyn.N_MicromegaStereoHits
UnAssocMuonSegmentsAuxDyn.N_StgcEtaHits
UnAssocMuonSegmentsAuxDyn.N_StgcPhiHits
UnAssocMuonSegmentsAuxDyn.clusterTime
UnAssocMuonSegmentsAuxDyn.clusterTimeError
UnAssocMuonSegmentsAuxDyn.clusterTimeValid
UnAssocMuonSegmentsAuxDyn.muonSegment
_TagInfo
egammaClusters
egammaClustersAux.
egammaClusters_links
index_ref
xAODNSWSegments
xAODNSWSegmentsAux.
xTrigDecision
xTrigDecisionAux.
